{
  "project_info": {
    "project_number": "165305015879",
    "firebase_url": "https://followyoursell-169207.firebaseio.com",
    "project_id": "followyoursell-169207",
    "storage_bucket": "followyoursell-169207.appspot.com"
  },
  "client": [
    {
      "client_info": {
        "mobilesdk_app_id": "1:165305015879:android:1520da00163f2d8a",
        "android_client_info": {
          "package_name": "com.invetechsolutions.followyoursell"
        }
      },
      "oauth_client": [
        {
          "client_id": "165305015879-29smk2fc8rhttpfcjd7qne5su6crdnh1.apps.googleusercontent.com",
          "client_type": 1,
          "android_info": {
            "package_name": "com.invetechsolutions.followyoursell",
            "certificate_hash": "a8cd38ad07c379d04daff4e85fce28d26268ef01"
          }
        },
        {
          "client_id": "165305015879-2d3bkauao4n6jgdf9ijjuirrq7oo3v10.apps.googleusercontent.com",
          "client_type": 1,
          "android_info": {
            "package_name": "com.invetechsolutions.followyoursell",
            "certificate_hash": "d493bc9ead9fe379ebb6618d4d7b4f62a02c8a0c"
          }
        },
        {
          "client_id": "165305015879-2nn5sqrr8c355g7uknufoh5rt5ijua98.apps.googleusercontent.com",
          "client_type": 1,
          "android_info": {
            "package_name": "com.invetechsolutions.followyoursell",
            "certificate_hash": "764ee0faeb0ef325a7058f4ca63213e542ba7293"
          }
        },
        {
          "client_id": "165305015879-3bpmai92q0el5iaj9no9pq2798i6pdbf.apps.googleusercontent.com",
          "client_type": 1,
          "android_info": {
            "package_name": "com.invetechsolutions.followyoursell",
            "certificate_hash": "90b646a789952318dceb5f7454482d96e2304bcb"
          }
        },
        {
          "client_id": "165305015879-48hq6oogkvlk2d1o5i3bondc84vlrpsb.apps.googleusercontent.com",
          "client_type": 1,
          "android_info": {
            "package_name": "com.invetechsolutions.followyoursell",
            "certificate_hash": "ec2352d56610e890840c7a85c69fabefd66c0b44"
          }
        },
        {
          "client_id": "165305015879-82ht7o2veenkmf4as6bvmfvq1fu43agt.apps.googleusercontent.com",
          "client_type": 1,
          "android_info": {
            "package_name": "com.invetechsolutions.followyoursell",
            "certificate_hash": "5e8f16062ea3cd2c4a0d547876baa6f38cabf625"
          }
        },
        {
          "client_id": "165305015879-832umalif97pnsbvp37v1vo5uhdv4umo.apps.googleusercontent.com",
          "client_type": 1,
          "android_info": {
            "package_name": "com.invetechsolutions.followyoursell",
            "certificate_hash": "1f7505c9dfc20ed7bfcf06e9b711cc7633d7e3af"
          }
        },
        {
          "client_id": "165305015879-9apgpokt0f0o9r3hhspdvq3a7da1hjjk.apps.googleusercontent.com",
          "client_type": 1,
          "android_info": {
            "package_name": "com.invetechsolutions.followyoursell",
            "certificate_hash": "7804a7f4ea7f797c38a80f53df607f2a01a288a5"
          }
        },
        {
          "client_id": "165305015879-ane5e36dpgjjitt026cvo5grb0a6qpl2.apps.googleusercontent.com",
          "client_type": 1,
          "android_info": {
            "package_name": "com.invetechsolutions.followyoursell",
            "certificate_hash": "06961bc4a824dabb64ea4390bd53df92816c03bf"
          }
        },
        {
          "client_id": "165305015879-bng5rqvsp8u96r7j3g2km37cdiccvna3.apps.googleusercontent.com",
          "client_type": 1,
          "android_info": {
            "package_name": "com.invetechsolutions.followyoursell",
            "certificate_hash": "52c9e651f56a7375b8debf62069e54673a665f61"
          }
        },
        {
          "client_id": "165305015879-ddao56untmifpnq1k9h1jgkfle3uirp7.apps.googleusercontent.com",
          "client_type": 1,
          "android_info": {
            "package_name": "com.invetechsolutions.followyoursell",
            "certificate_hash": "91f58a996e20260f76d544701a764f0b1f8c741d"
          }
        },
        {
          "client_id": "165305015879-dpe7ngn635glot25v5jqdnvt6p9t0bvj.apps.googleusercontent.com",
          "client_type": 1,
          "android_info": {
            "package_name": "com.invetechsolutions.followyoursell",
            "certificate_hash": "63ae31bdd29802816326c4c794427f6be54a61df"
          }
        },
        {
          "client_id": "165305015879-i2km8nun3c6569fah34og4amdvb1s1r8.apps.googleusercontent.com",
          "client_type": 1,
          "android_info": {
            "package_name": "com.invetechsolutions.followyoursell",
            "certificate_hash": "3b501dda1bcc000e5bcb46ccfaecc206e2f6055f"
          }
        },
        {
          "client_id": "165305015879-jngu08b144ddefp5l0n2tdu9aj8nei0e.apps.googleusercontent.com",
          "client_type": 1,
          "android_info": {
            "package_name": "com.invetechsolutions.followyoursell",
            "certificate_hash": "75c0f2fc6cf19bc57f7f1878ec396e383e08b65d"
          }
        },
        {
          "client_id": "165305015879-l6ob3ktdhvhll50u4lse2gl8b79idbl2.apps.googleusercontent.com",
          "client_type": 1,
          "android_info": {
            "package_name": "com.invetechsolutions.followyoursell",
            "certificate_hash": "b5df6126be5d87ee2020eab84ed4f633aed3ef65"
          }
        },
        {
          "client_id": "165305015879-p6r03bojbok60geeqg9mg51nbv6u9k6r.apps.googleusercontent.com",
          "client_type": 1,
          "android_info": {
            "package_name": "com.invetechsolutions.followyoursell",
            "certificate_hash": "557d04397446a6894a12577c56c1fe0ca2945b86"
          }
        },
        {
          "client_id": "165305015879-ra1e9jjqnnop6ivhp89sboov9g2v1at5.apps.googleusercontent.com",
          "client_type": 1,
          "android_info": {
            "package_name": "com.invetechsolutions.followyoursell",
            "certificate_hash": "7cbceb73968f8aa64ec218c06d1a33f460a75fb4"
          }
        },
        {
          "client_id": "165305015879-tv74stqpbsvp0okutoeso0pgaa6k1s6c.apps.googleusercontent.com",
          "client_type": 1,
          "android_info": {
            "package_name": "com.invetechsolutions.followyoursell",
            "certificate_hash": "8beab04a43d23f22f6f66e5d3b84b0b49f101faa"
          }
        },
        {
          "client_id": "165305015879-5ln41g4b5rv68ekab7lmmvr2n6jpkhou.apps.googleusercontent.com",
          "client_type": 3
        }
      ],
      "api_key": [
        {
          "current_key": "AIzaSyCy-LkvWmcuBzh0-Tn589Se9HUaU-pBmcQ"
        }
      ],
      "services": {
        "appinvite_service": {
          "other_platform_oauth_client": [
            {
              "client_id": "165305015879-5ln41g4b5rv68ekab7lmmvr2n6jpkhou.apps.googleusercontent.com",
              "client_type": 3
            },
            {
              "client_id": "165305015879-c6curqqsa0ul9c84bco5l5n92f9vqlub.apps.googleusercontent.com",
              "client_type": 2,
              "ios_info": {
                "bundle_id": "com.invetechsolutions.followyoursell"
              }
            }
          ]
        }
      }
    }
  ],
  "configuration_version": "1"
}